module bitbucket.org/luisGsandoval/lu_sa-backend

go 1.14

require (
	github.com/dgrijalva/jwt-go v3.2.0+incompatible
	github.com/go-sql-driver/mysql v1.5.0
	github.com/gorilla/mux v1.7.4
	github.com/rs/cors v1.7.0
	golang.org/x/crypto v0.0.0-20200510223506-06a226fb4e37
)
